CHANGELOG.md
COPYING
README.md
buttonCellRenderer.js
errors.js
extension.js
formatter.js
jsTextFile.js
locale/
locale/de/
locale/de/LC_MESSAGES
locale/de/LC_MESSAGES/todotxt.mo
locale/nl/
locale/nl/LC_MESSAGES/
locale/nl/LC_MESSAGES/todotxt.mo
locale/pt_PT/
locale/pt_PT/LC_MESSAGES/
locale/pt_PT/LC_MESSAGES/todotxt.mo
locale/zh_CN/
locale/zh_CN/LC_MESSAGES/
locale/zh_CN/LC_MESSAGES/todotxt.mo
markup.js
messageDialog.js
metadata.json
multiButtonDialog.js
preferences/booleanWidget.js
preferences/categoryTab.js
preferences/categoryTabWithSubtabs.js
preferences/colorWidget.js
preferences/helpWidget.js
preferences/integerWidget.js
preferences/pathWidget.js
preferences/preferenceWidget.js
preferences/priorityMarkupWidget.js
preferences/shortcutWidget.js
preferences/spinWidget.js
preferences/stringWidget.js
preferences/subCategorySection.js
preferences/subCategoryTab.js
prefs.js
prefsCreator.js
schemas/
schemas/gschemas.compiled
schemas/org.gnome.shell.extensions.TodoTxt.gschema.xml
scrollablePopupMenu.js
settings.js
settings.json
sharedConstants.js
stylesheet.css
third_party/jsTodoTxt/jsTodoExtensions.js
third_party/jsTodoTxt/jsTodoTxt.js
third_party/js_expression_eval/parser.js
third_party/logDecorator/logDecorator.js
third_party/logger/logger.js
todoMenuItem.js
topBar.js
urlHighlighter.js
utils.js
